…
> library(jurimetrics)
> data(tjrs_year_month) # attaching data

In order to print the first 10 lines, just enter the name of the attached data. Note the information
about the class of the object (tibble) is a 216 × 2 × 1 dimension tensor. The tibble object also brings
information about the columns classes, respectively <date> and <int(eger)>. In the last line is displayed
the number of rows and columns not shown on the screen, in this case 206 rows. The option print(n =
Inf) prints all the lines, but this procedure is not encouraged.

> tjrs_year_month

# A tibble: 216 x 2
yearMonth count
<date> <int>
1 2000-01-01 12
2 2000-02-01 222
3 2000-03-01 576
4 2000-04-01 647
5 2000-05-01 1098
6 2000-06-01 2307
7 2000-07-01 107
8 2000-08-01 4743
9 2000-09-01 3301
10 2000-10-01 4255
# ... with 206 more rows
…
